%YAML 1.1
%TAG !u! tag:unity3d.com,2011:
--- !u!114 &11400000
MonoBehaviour:
  m_ObjectHideFlags: 0
  m_CorrespondingSourceObject: {fileID: 0}
  m_PrefabInternal: {fileID: 0}
  m_GameObject: {fileID: 0}
  m_Enabled: 1
  m_EditorHideFlags: 0
  m_Script: {fileID: 11500000, guid: d08fe68c4f335154e935a14a8d28bfa2, type: 3}
  m_Name: CollectibleDB
  m_EditorClassIdentifier: 
  objList: []
  collectibleList:
  - {fileID: 114387483362039728, guid: fb6faebe4ca14aa47a8fe6f9d419be6e, type: 2}
  - {fileID: 114372075188083250, guid: 23fc8e1eef6bbfc438fade99080ebb8c, type: 2}
  - {fileID: 114982144658801642, guid: e232b504ccbc6344d9dc857ba5e3789d, type: 2}
  - {fileID: 114030374354244230, guid: 5607b6d8ac9b21e4388be0621f5dcd9b, type: 2}
