%YAML 1.1
%TAG !u! tag:unity3d.com,2011:
--- !u!114 &11400000
MonoBehaviour:
  m_ObjectHideFlags: 0
  m_CorrespondingSourceObject: {fileID: 0}
  m_PrefabInternal: {fileID: 0}
  m_GameObject: {fileID: 0}
  m_Enabled: 1
  m_EditorHideFlags: 0
  m_Script: {fileID: 11500000, guid: b83dc3bde50de6644bcac8961840b7a1, type: 3}
  m_Name: EffectDB
  m_EditorClassIdentifier: 
  effectList:
  - prefabID: 1
    instanceID: -1
    icon: {fileID: 21300062, guid: 829675e3673863042b49e7db0431f3e3, type: 3}
    name: Col_BuffDamage
    desp: Buff damage by 50% for 5 turns
    showInUnitInfo: 1
    stackable: 0
    duration: 5
    durationRemain: 1
    impactType: 0
    damageType: 0
    hpModifierMin: 5
    hpModifierMax: 5
    apModifierMin: 5
    apModifierMax: 5
    effType: 1
    stats:
      hp: 1
      ap: 1
      hpRegen: 0
      apRegen: 2
      attack: 1
      defense: 1
      hit: 1
      dodge: 1
      dmgHPMin: 1.5
      dmgHPMax: 1.5
      dmgAPMin: 1
      dmgAPMax: 1
      critChance: 1
      critReduc: 1
      critMultiplier: 1
      cDmgMultip: 1
      cHitPenalty: 1
      cCritPenalty: 1
      oDmgMultip: 1
      oHitPenalty: 1
      oCritPenalty: 1
      attackRange: 1
      attackRangeMin: 0
      moveRange: 1
      turnPriority: 1
      sight: 1
      moveLimit: 1
      attackLimit: 1
      counterLimit: 1
      abilityLimit: 1
      abDuration: 1
      abCooldown: 1
      abUseLimit: 1
      abApCost: 1
      abAoeRange: 1
      abEffHitChance: 0
      effduration: 1
      effHP: 1
      effAP: 1
    overwatch: 0
    stun: 0
    disableAbility: 0
  - prefabID: 2
    instanceID: -1
    icon: {fileID: 21300062, guid: 829675e3673863042b49e7db0431f3e3, type: 3}
    name: Col_BuffAttack
    desp: Buff damage by 50% for 5 turns
    showInUnitInfo: 1
    stackable: 0
    duration: 5
    durationRemain: 1
    impactType: 0
    damageType: 0
    hpModifierMin: 5
    hpModifierMax: 5
    apModifierMin: 5
    apModifierMax: 5
    effType: 0
    stats:
      hp: 0
      ap: 0
      hpRegen: 0
      apRegen: 2
      attack: 30
      defense: 0
      hit: 0
      dodge: 0
      dmgHPMin: 0
      dmgHPMax: 0
      dmgAPMin: 0
      dmgAPMax: 0
      critChance: 0
      critReduc: 0
      critMultiplier: 0
      cDmgMultip: 0
      cHitPenalty: 0
      cCritPenalty: 0
      oDmgMultip: 0
      oHitPenalty: 0
      oCritPenalty: 0
      attackRange: 0
      attackRangeMin: 0
      moveRange: 0
      turnPriority: 0
      sight: 0
      moveLimit: 0
      attackLimit: 0
      counterLimit: 0
      abilityLimit: 0
      abDuration: 0
      abCooldown: 0
      abUseLimit: 0
      abApCost: 0
      abAoeRange: 0
      abEffHitChance: 0
      effduration: 0
      effHP: 0
      effAP: 0
    overwatch: 0
    stun: 0
    disableAbility: 0
  - prefabID: 3
    instanceID: -1
    icon: {fileID: 21300074, guid: 829675e3673863042b49e7db0431f3e3, type: 3}
    name: Col_BuffDefense
    desp: Buff defense by 30 for 5 turns
    showInUnitInfo: 1
    stackable: 0
    duration: 5
    durationRemain: 1
    impactType: 0
    damageType: 0
    hpModifierMin: 5
    hpModifierMax: 5
    apModifierMin: 5
    apModifierMax: 5
    effType: 0
    stats:
      hp: 0
      ap: 0
      hpRegen: 0
      apRegen: 2
      attack: 0
      defense: 30
      hit: 0
      dodge: 0
      dmgHPMin: 0
      dmgHPMax: 0
      dmgAPMin: 0
      dmgAPMax: 0
      critChance: 0
      critReduc: 0
      critMultiplier: 0
      cDmgMultip: 0
      cHitPenalty: 0
      cCritPenalty: 0
      oDmgMultip: 0
      oHitPenalty: 0
      oCritPenalty: 0
      attackRange: 0
      attackRangeMin: 0
      moveRange: 0
      turnPriority: 0
      sight: 0
      moveLimit: 0
      attackLimit: 0
      counterLimit: 0
      abilityLimit: 0
      abDuration: 0
      abCooldown: 0
      abUseLimit: 0
      abApCost: 0
      abAoeRange: 0
      abEffHitChance: 0
      effduration: 0
      effHP: 0
      effAP: 0
    overwatch: 0
    stun: 0
    disableAbility: 0
  - prefabID: 4
    instanceID: -1
    icon: {fileID: 21300056, guid: 829675e3673863042b49e7db0431f3e3, type: 3}
    name: FAB_BuffFriendly
    desp: Use by faction ability, buff target attack and defense by 50%
    showInUnitInfo: 1
    stackable: 0
    duration: 2
    durationRemain: 1
    impactType: 0
    damageType: 0
    hpModifierMin: 5
    hpModifierMax: 5
    apModifierMin: 5
    apModifierMax: 5
    effType: 1
    stats:
      hp: 1
      ap: 1
      hpRegen: 1
      apRegen: 1
      attack: 1.5
      defense: 1.5
      hit: 1
      dodge: 1
      dmgHPMin: 1
      dmgHPMax: 1
      dmgAPMin: 1
      dmgAPMax: 1
      critChance: 1
      critReduc: 1
      critMultiplier: 1
      cDmgMultip: 1
      cHitPenalty: 1
      cCritPenalty: 1
      oDmgMultip: 1
      oHitPenalty: 1
      oCritPenalty: 1
      attackRange: 1
      attackRangeMin: 0
      moveRange: 1
      turnPriority: 1
      sight: 1
      moveLimit: 1
      attackLimit: 1
      counterLimit: 1
      abilityLimit: 1
      abDuration: 1
      abCooldown: 1
      abUseLimit: 1
      abApCost: 1
      abAoeRange: 1
      abEffHitChance: 0
      effduration: 1
      effHP: 1
      effAP: 1
    overwatch: 0
    stun: 0
    disableAbility: 0
  - prefabID: 5
    instanceID: -1
    icon: {fileID: 21300054, guid: 829675e3673863042b49e7db0431f3e3, type: 3}
    name: FAB_DebuffHostile
    desp: Use by faction ability, reduce target attack and defense by 50%
    showInUnitInfo: 1
    stackable: 0
    duration: 2
    durationRemain: 1
    impactType: 0
    damageType: 0
    hpModifierMin: 5
    hpModifierMax: 5
    apModifierMin: 5
    apModifierMax: 5
    effType: 1
    stats:
      hp: 1
      ap: 1
      hpRegen: 1
      apRegen: 1
      attack: 0.5
      defense: 0.5
      hit: 1
      dodge: 1
      dmgHPMin: 1
      dmgHPMax: 1
      dmgAPMin: 1
      dmgAPMax: 1
      critChance: 1
      critReduc: 1
      critMultiplier: 1
      cDmgMultip: 1
      cHitPenalty: 1
      cCritPenalty: 1
      oDmgMultip: 1
      oHitPenalty: 1
      oCritPenalty: 1
      attackRange: 1
      attackRangeMin: 0
      moveRange: 1
      turnPriority: 1
      sight: 1
      moveLimit: 1
      attackLimit: 1
      counterLimit: 1
      abilityLimit: 1
      abDuration: 1
      abCooldown: 1
      abUseLimit: 1
      abApCost: 1
      abAoeRange: 1
      abEffHitChance: 0
      effduration: 1
      effHP: 1
      effAP: 1
    overwatch: 0
    stun: 0
    disableAbility: 0
  - prefabID: 6
    instanceID: -1
    icon: {fileID: 21300094, guid: 829675e3673863042b49e7db0431f3e3, type: 3}
    name: Stun
    desp: Stun target
    showInUnitInfo: 1
    stackable: 0
    duration: 2
    durationRemain: 1
    impactType: 0
    damageType: 0
    hpModifierMin: 5
    hpModifierMax: 5
    apModifierMin: 5
    apModifierMax: 5
    effType: 1
    stats:
      hp: 1
      ap: 1
      hpRegen: 1
      apRegen: 1
      attack: 1
      defense: 1
      hit: 1
      dodge: 1
      dmgHPMin: 1
      dmgHPMax: 1
      dmgAPMin: 1
      dmgAPMax: 1
      critChance: 1
      critReduc: 1
      critMultiplier: 1
      cDmgMultip: 1
      cHitPenalty: 1
      cCritPenalty: 1
      oDmgMultip: 1
      oHitPenalty: 1
      oCritPenalty: 1
      attackRange: 1
      attackRangeMin: 0
      moveRange: 1
      turnPriority: 1
      sight: 1
      moveLimit: 1
      attackLimit: 1
      counterLimit: 1
      abilityLimit: 1
      abDuration: 1
      abCooldown: 1
      abUseLimit: 1
      abApCost: 1
      abAoeRange: 1
      abEffHitChance: 0
      effduration: 1
      effHP: 1
      effAP: 1
    overwatch: 0
    stun: 1
    disableAbility: 0
  - prefabID: 7
    instanceID: -1
    icon: {fileID: 21300096, guid: 829675e3673863042b49e7db0431f3e3, type: 3}
    name: Overwatch
    desp: Attack the first hostile unit that move within its attack range
    showInUnitInfo: 1
    stackable: 0
    duration: 1
    durationRemain: 1
    impactType: 0
    damageType: 0
    hpModifierMin: 5
    hpModifierMax: 5
    apModifierMin: 5
    apModifierMax: 5
    effType: 1
    stats:
      hp: 1
      ap: 1
      hpRegen: 1
      apRegen: 1
      attack: 1
      defense: 1
      hit: 1
      dodge: 1
      dmgHPMin: 1
      dmgHPMax: 1
      dmgAPMin: 1
      dmgAPMax: 1
      critChance: 1
      critReduc: 1
      critMultiplier: 1
      cDmgMultip: 1
      cHitPenalty: 1
      cCritPenalty: 1
      oDmgMultip: 1
      oHitPenalty: 1
      oCritPenalty: 1
      attackRange: 1
      attackRangeMin: 0
      moveRange: 1
      turnPriority: 1
      sight: 1
      moveLimit: 1
      attackLimit: 1
      counterLimit: 1
      abilityLimit: 1
      abDuration: 1
      abCooldown: 1
      abUseLimit: 1
      abApCost: 1
      abAoeRange: 1
      abEffHitChance: 0
      effduration: 1
      effHP: 1
      effAP: 1
    overwatch: 1
    stun: 0
    disableAbility: 0
  - prefabID: 8
    instanceID: -1
    icon: {fileID: 21300070, guid: 829675e3673863042b49e7db0431f3e3, type: 3}
    name: Damage Over Time
    desp: Dealing 1 damage over 4 turns
    showInUnitInfo: 1
    stackable: 0
    duration: 4
    durationRemain: 1
    impactType: 1
    damageType: 0
    hpModifierMin: 1
    hpModifierMax: 1
    apModifierMin: 0
    apModifierMax: 0
    effType: 1
    stats:
      hp: 1
      ap: 1
      hpRegen: 1
      apRegen: 1
      attack: 1
      defense: 1
      hit: 1
      dodge: 1
      dmgHPMin: 1
      dmgHPMax: 1
      dmgAPMin: 1
      dmgAPMax: 1
      critChance: 1
      critReduc: 1
      critMultiplier: 1
      cDmgMultip: 1
      cHitPenalty: 1
      cCritPenalty: 1
      oDmgMultip: 1
      oHitPenalty: 1
      oCritPenalty: 1
      attackRange: 1
      attackRangeMin: 0
      moveRange: 1
      turnPriority: 1
      sight: 1
      moveLimit: 1
      attackLimit: 1
      counterLimit: 1
      abilityLimit: 1
      abDuration: 1
      abCooldown: 1
      abUseLimit: 1
      abApCost: 1
      abAoeRange: 1
      abEffHitChance: 0
      effduration: 1
      effHP: 1
      effAP: 1
    overwatch: 0
    stun: 0
    disableAbility: 0
  - prefabID: 9
    instanceID: -1
    icon: {fileID: 21300106, guid: 829675e3673863042b49e7db0431f3e3, type: 3}
    name: UAB_DOTDebuff
    desp: Dealing 1 damage overtime and reduce target's attack by 30%
    showInUnitInfo: 1
    stackable: 0
    duration: 4
    durationRemain: 1
    impactType: 1
    damageType: 0
    hpModifierMin: 1
    hpModifierMax: 1
    apModifierMin: 0
    apModifierMax: 0
    effType: 1
    stats:
      hp: 1
      ap: 1
      hpRegen: 1
      apRegen: 1
      attack: 0.7
      defense: 1
      hit: 1
      dodge: 1
      dmgHPMin: 1
      dmgHPMax: 1
      dmgAPMin: 1
      dmgAPMax: 1
      critChance: 1
      critReduc: 1
      critMultiplier: 1
      cDmgMultip: 1
      cHitPenalty: 1
      cCritPenalty: 1
      oDmgMultip: 1
      oHitPenalty: 1
      oCritPenalty: 1
      attackRange: 1
      attackRangeMin: 0
      moveRange: 1
      turnPriority: 1
      sight: 1
      moveLimit: 1
      attackLimit: 1
      counterLimit: 1
      abilityLimit: 1
      abDuration: 1
      abCooldown: 1
      abUseLimit: 1
      abApCost: 1
      abAoeRange: 1
      abEffHitChance: 0
      effduration: 1
      effHP: 1
      effAP: 1
    overwatch: 0
    stun: 0
    disableAbility: 0
  - prefabID: 0
    instanceID: -1
    icon: {fileID: 21300062, guid: 829675e3673863042b49e7db0431f3e3, type: 3}
    name: UAB_BuffAttack
    desp: Increase target's attack and hit chance by 20% for 2 turns
    showInUnitInfo: 1
    stackable: 0
    duration: 2
    durationRemain: 1
    impactType: 0
    damageType: 0
    hpModifierMin: 5
    hpModifierMax: 5
    apModifierMin: 5
    apModifierMax: 5
    effType: 1
    stats:
      hp: 1
      ap: 1
      hpRegen: 1
      apRegen: 1
      attack: 1.2
      defense: 1
      hit: 1.2
      dodge: 1
      dmgHPMin: 1
      dmgHPMax: 1
      dmgAPMin: 1
      dmgAPMax: 1
      critChance: 1
      critReduc: 1
      critMultiplier: 1
      cDmgMultip: 1
      cHitPenalty: 1
      cCritPenalty: 1
      oDmgMultip: 1
      oHitPenalty: 1
      oCritPenalty: 1
      attackRange: 1
      attackRangeMin: 0
      moveRange: 1
      turnPriority: 1
      sight: 1
      moveLimit: 1
      attackLimit: 1
      counterLimit: 1
      abilityLimit: 1
      abDuration: 1
      abCooldown: 1
      abUseLimit: 1
      abApCost: 1
      abAoeRange: 1
      abEffHitChance: 0
      effduration: 1
      effHP: 1
      effAP: 1
    overwatch: 0
    stun: 0
    disableAbility: 0
  - prefabID: 10
    instanceID: -1
    icon: {fileID: 21300062, guid: 829675e3673863042b49e7db0431f3e3, type: 3}
    name: UAB_PowerUp
    desp: Give unit extra move and attack
    showInUnitInfo: 1
    stackable: 0
    duration: 1
    durationRemain: 1
    impactType: 0
    damageType: 0
    hpModifierMin: 5
    hpModifierMax: 5
    apModifierMin: 5
    apModifierMax: 5
    effType: 1
    stats:
      hp: 1
      ap: 1
      hpRegen: 1
      apRegen: 1
      attack: 1
      defense: 1
      hit: 1
      dodge: 1
      dmgHPMin: 1
      dmgHPMax: 1
      dmgAPMin: 1
      dmgAPMax: 1
      critChance: 1
      critReduc: 1
      critMultiplier: 1
      cDmgMultip: 1
      cHitPenalty: 1
      cCritPenalty: 1
      oDmgMultip: 1
      oHitPenalty: 1
      oCritPenalty: 1
      attackRange: 1
      attackRangeMin: 0
      moveRange: 1
      turnPriority: 1
      sight: 1
      moveLimit: 2
      attackLimit: 2
      counterLimit: 1
      abilityLimit: 1
      abDuration: 1
      abCooldown: 1
      abUseLimit: 1
      abApCost: 1
      abAoeRange: 1
      abEffHitChance: 0
      effduration: 1
      effHP: 1
      effAP: 1
    overwatch: 0
    stun: 0
    disableAbility: 0
  - prefabID: 11
    instanceID: -1
    icon: {fileID: 21300098, guid: 829675e3673863042b49e7db0431f3e3, type: 3}
    name: UAB_AimShot
    desp: Gain 100% crit-chance
    showInUnitInfo: 1
    stackable: 0
    duration: 1
    durationRemain: 1
    impactType: 0
    damageType: 0
    hpModifierMin: 5
    hpModifierMax: 5
    apModifierMin: 5
    apModifierMax: 5
    effType: 0
    stats:
      hp: 0
      ap: 0
      hpRegen: 0
      apRegen: 0
      attack: 0
      defense: 30
      hit: 0.15
      dodge: 0
      dmgHPMin: 0
      dmgHPMax: 0
      dmgAPMin: 0
      dmgAPMax: 0
      critChance: 1
      critReduc: 0
      critMultiplier: 0
      cDmgMultip: 0
      cHitPenalty: 0
      cCritPenalty: 0
      oDmgMultip: 0
      oHitPenalty: 0
      oCritPenalty: 0
      attackRange: 0
      attackRangeMin: 0
      moveRange: 0
      turnPriority: 0
      sight: 0
      moveLimit: 0
      attackLimit: 0
      counterLimit: 0
      abilityLimit: 0
      abDuration: 0
      abCooldown: 0
      abUseLimit: 0
      abApCost: 0
      abAoeRange: 0
      abEffHitChance: 0
      effduration: 0
      effHP: 0
      effAP: 0
    overwatch: 0
    stun: 0
    disableAbility: 0
  - prefabID: 12
    instanceID: -1
    icon: {fileID: 21300074, guid: 829675e3673863042b49e7db0431f3e3, type: 3}
    name: UAB_Defensive
    desp: Buff defense and dodge by 50%
    showInUnitInfo: 1
    stackable: 0
    duration: 2
    durationRemain: 1
    impactType: 0
    damageType: 0
    hpModifierMin: 5
    hpModifierMax: 5
    apModifierMin: 5
    apModifierMax: 5
    effType: 1
    stats:
      hp: 1
      ap: 1
      hpRegen: 1
      apRegen: 1
      attack: 1
      defense: 1.5
      hit: 1
      dodge: 1.5
      dmgHPMin: 1
      dmgHPMax: 1
      dmgAPMin: 1
      dmgAPMax: 1
      critChance: 1
      critReduc: 1
      critMultiplier: 1
      cDmgMultip: 1
      cHitPenalty: 1
      cCritPenalty: 1
      oDmgMultip: 1
      oHitPenalty: 1
      oCritPenalty: 1
      attackRange: 1
      attackRangeMin: 0
      moveRange: 1
      turnPriority: 1
      sight: 1
      moveLimit: 1
      attackLimit: 1
      counterLimit: 1
      abilityLimit: 1
      abDuration: 1
      abCooldown: 1
      abUseLimit: 1
      abApCost: 1
      abAoeRange: 1
      abEffHitChance: 1
      effduration: 1
      effHP: 1
      effAP: 1
    overwatch: 0
    stun: 0
    disableAbility: 0
